^C:\USERS\DOM\DOCUMENTS\VISUAL STUDIO 2015\PROJECTS\PROJECT1\PROJECT1\RELEASE\MAIN.OBJ|C:\USERS\DOM\DOCUMENTS\VISUAL STUDIO 2015\PROJECTS\PROJECT1\PROJECT1\RELEASE\SHADER.OBJ
C:\USERS\DOM\DOCUMENTS\VISUAL STUDIO 2015\PROJECTS\PROJECT1\RELEASE\PROJECT1.EXE
C:\USERS\DOM\DOCUMENTS\VISUAL STUDIO 2015\PROJECTS\PROJECT1\RELEASE\PROJECT1.IPDB
C:\USERS\DOM\DOCUMENTS\VISUAL STUDIO 2015\PROJECTS\PROJECT1\RELEASE\PROJECT1.IOBJ
C:\USERS\DOM\DOCUMENTS\VISUAL STUDIO 2015\PROJECTS\PROJECT1\RELEASE\PROJECT1.PDB
