# Blender MTL File: 'tsar.blend'
# Material Count: 15

newmtl Bay_Side
Ns 39.215686
Ka 0.100000 0.100000 0.100000
Kd 0.700000 0.700000 0.700000
Ks 0.270000 0.270000 0.270000
Ke 0.000000 0.000000 0.000000
Ni 1.500000
d 1.000000
illum 2
map_Kd bs.jpg
map_Bump bsBump.gif
map_Ka bs.jpg
map_Ke bsLight.gif

newmtl Bay_Top
Ns 39.215686
Ka 0.100000 0.100000 0.100000
Kd 0.700000 0.700000 0.700000
Ks 0.270000 0.270000 0.270000
Ke 0.000000 0.000000 0.000000
Ni 1.500000
d 1.000000
illum 2
map_Kd btpanel.jpg
map_Bump btBump.gif
map_Ka btpanel.jpg
map_Ke btLite.gif

newmtl Face
Ns 39.215686
Ka 0.100000 0.100000 0.100000
Kd 0.700000 0.700000 0.700000
Ks 0.270000 0.270000 0.270000
Ke 0.000000 0.000000 0.000000
Ni 1.500000
d 1.000000
illum 2
map_Kd window_col.jpg
map_Ka window_col.jpg

newmtl Material__28
Ns 9.803922
Ka 0.123333 0.123333 0.123333
Kd 0.388200 0.529400 0.192200
Ks 0.000000 0.000000 0.000000
Ke 0.781892 1.066289 0.387119
Ni 1.500000
d 1.000000
illum 2

newmtl Material__30
Ns 9.803922
Ka 1.000000 1.000000 1.000000
Kd 1.000000 1.000000 1.000000
Ks 0.000000 0.000000 0.000000
Ke 0.000000 0.000000 0.000000
Ni 1.500000
d 1.000000
illum 2
map_Kd signage.jpg
map_Ka signage.jpg

newmtl Material__302
Ns 9.803922
Ka 1.000000 1.000000 1.000000
Kd 1.000000 1.000000 1.000000
Ks 0.000000 0.000000 0.000000
Ke 0.000000 0.000000 0.000000
Ni 1.500000
d 1.000000
illum 2
map_Kd pc-bw.png
map_Ka pc-bw.png

newmtl Rim
Ns 39.215686
Ka 0.100000 0.100000 0.100000
Kd 0.700000 0.700000 0.700000
Ks 0.270000 0.270000 0.270000
Ke 0.000000 0.000000 0.000000
Ni 1.500000
d 1.000000
illum 2
map_Kd std.jpg
map_Ka std.jpg

newmtl block
Ns 11.764706
Ka 0.138433 0.138433 0.138433
Kd 0.545100 0.192200 0.517600
Ks 0.065000 0.022900 0.061700
Ke 0.000000 0.000000 0.000000
Ni 1.000000
d 1.000000
illum 2
map_Kd std.jpg
map_Ka std.jpg

newmtl cable_brackets
Ns 50.980392
Ka 0.000000 0.000000 0.000000
Kd 0.568600 0.584300 0.513700
Ks 0.000000 0.000000 0.000000
Ke 0.000000 0.000000 0.000000
Ni 1.000000
d 1.000000
illum 2

newmtl cables
Ns 50.980392
Ka 0.000000 0.000000 0.000000
Kd 0.549000 0.564700 0.568600
Ks 0.000000 0.000000 0.000000
Ke 0.000000 0.000000 0.000000
Ni 1.000000
d 1.000000
illum 2

newmtl hubface
Ns 11.764706
Ka 0.101767 0.101767 0.101767
Kd 0.537300 0.196100 0.196100
Ks 0.005000 0.001800 0.001800
Ke 0.000000 0.000000 0.000000
Ni 1.000000
d 1.000000
illum 2
map_Kd hubDiffuse.jpg
map_Bump hubB.gif
map_Ka hubDiffuse.jpg

newmtl spindle
Ns 11.764706
Ka 0.133667 0.133667 0.133667
Kd 0.192200 0.474500 0.545100
Ks 0.001800 0.004400 0.005000
Ke 0.000000 0.000000 0.000000
Ni 1.000000
d 1.000000
illum 2
map_Kd spoke_Diff.jpg
map_Bump spokeBump.gif
map_Ka spoke_Diff.jpg

newmtl spoke_support
Ns 50.980392
Ka 0.000000 0.000000 0.000000
Kd 0.486300 0.411800 0.411800
Ks 0.000000 0.000000 0.000000
Ke 0.000000 0.000000 0.000000
Ni 1.000000
d 1.000000
illum 2

newmtl spokes
Ns 11.764706
Ka 0.155833 0.155833 0.155833
Kd 0.105900 0.670600 0.651000
Ks 0.009900 0.063000 0.061200
Ke 0.000000 0.000000 0.000000
Ni 1.000000
d 1.000000
illum 2
map_Kd spoke.jpg
map_Ka spoke.jpg

newmtl wheel_girders
Ns 64.705882
Ka 0.717667 0.717667 0.717667
Kd 0.780400 0.690200 0.682400
Ks 0.000000 0.000000 0.000000
Ke 0.000000 0.000000 0.000000
Ni 1.000000
d 1.000000
illum 2
map_Kd rust.jpg
map_Ka rust.jpg
refl Map__9_Raytrace.tga
