^C:\USERS\DOM\DESKTOP\GRK\SRC\SHADER.CC
/c /Zi /nologo /W3 /WX- /sdl /O2 /Oi /Oy- /GL /D _MBCS /Gm- /EHsc /MD /GS /Gy /fp:precise /Zc:wchar_t /Zc:forScope /Zc:inline /Fo"RELEASE\\" /Fd"RELEASE\VC140.PDB" /Gd /TP /analyze- C:\USERS\DOM\DESKTOP\GRK\SRC\SHADER.CC
^C:\USERS\DOM\DESKTOP\GRK\SRC\MAIN.CC
/c /Zi /nologo /W3 /WX- /sdl /O2 /Oi /Oy- /GL /D _MBCS /Gm- /EHsc /MD /GS /Gy /fp:precise /Zc:wchar_t /Zc:forScope /Zc:inline /Fo"RELEASE\\" /Fd"RELEASE\VC140.PDB" /Gd /TP /analyze- C:\USERS\DOM\DESKTOP\GRK\SRC\MAIN.CC
^C:\USERS\DOM\DOCUMENTS\VISUAL STUDIO 2015\PROJECTS\PROJECT1\SRC\MAIN.CC
/c /Zi /nologo /W3 /WX- /sdl /O2 /Oi /Oy- /GL /D _MBCS /Gm- /EHsc /MD /GS /Gy /fp:precise /Zc:wchar_t /Zc:forScope /Zc:inline /Fo"RELEASE\\" /Fd"RELEASE\VC140.PDB" /Gd /TP /analyze- C:\USERS\DOM\DOCUMENTS\VISUAL STUDIO 2015\PROJECTS\PROJECT1\SRC\MAIN.CC
^C:\USERS\DOM\DOCUMENTS\VISUAL STUDIO 2015\PROJECTS\PROJECT1\SRC\SHADER.CC
/c /Zi /nologo /W3 /WX- /sdl /O2 /Oi /Oy- /GL /D _MBCS /Gm- /EHsc /MD /GS /Gy /fp:precise /Zc:wchar_t /Zc:forScope /Zc:inline /Fo"RELEASE\\" /Fd"RELEASE\VC140.PDB" /Gd /TP /analyze- C:\USERS\DOM\DOCUMENTS\VISUAL STUDIO 2015\PROJECTS\PROJECT1\SRC\SHADER.CC
